{
  "decrypt_check_variable": 123456789,
  "product": 10,
  "product_key": 2002,
  "speed": 1,
  "period_in_days": 400,
  "starting_year": 2021,
  "starting_month": 1,
  "starting_date": 20,
  "serial": "ttyS0"
}
